..................
----------------------------------------------------------------------
Ran 18 tests in 0.002s

OK
Name               Stmts   Miss Branch BrPart  Cover   Missing
--------------------------------------------------------------
Army.py               31      0      6      1    97%   43->49
City.py               32      0     14      2    96%   25->exit, 26->25
Diplomacy.py          42      0     14      0   100%
TestDiplomacy.py     113      0      0      0   100%
--------------------------------------------------------------
TOTAL                218      0     34      3    99%
