........................
----------------------------------------------------------------------
Ran 24 tests in 0.002s

OK
Name               Stmts   Miss Branch BrPart  Cover   Missing
--------------------------------------------------------------
Diplomacy.py          91      0     50      0   100%
TestDiplomacy.py     103      0      0      0   100%
--------------------------------------------------------------
TOTAL                194      0     50      0   100%
