.....
----------------------------------------------------------------------
Ran 5 tests in 0.003s

OK
Name               Stmts   Miss Branch BrPart  Cover   Missing
--------------------------------------------------------------
Diplomacy.py          73      0     48      0   100%
TestDiplomacy.py      31      0      4      1    97%   52->exit
--------------------------------------------------------------
TOTAL                104      0     52      1    99%
