...
----------------------------------------------------------------------
Ran 3 tests in 0.001s

OK
Name               Stmts   Miss Branch BrPart  Cover   Missing
--------------------------------------------------------------
Diplomacy.py          91      0     85      0   100%
TestDiplomacy.py      21      0      2      0   100%
--------------------------------------------------------------
TOTAL                112      0     87      0   100%
