.................
----------------------------------------------------------------------
Ran 17 tests in 0.003s

OK
Name               Stmts   Miss Branch BrPart  Cover   Missing
--------------------------------------------------------------
Diplomacy.py          74      0     48      0   100%
TestDiplomacy.py     115      0      0      0   100%
--------------------------------------------------------------
TOTAL                189      0     48      0   100%
